﻿[
    {
        "SubscriptionId" : "4d4c224e-15a0-4572-98e3-73ba34318edd",
        "ResourceGroupName" : "IRPC-I1-CrudeSelection-Dev",
        "SqlServerName" : "irpccrudedbdev",
        "FWRuleName": "7Peaks"
    },

    {
        "SubscriptionId" : "4d4c224e-15a0-4572-98e3-73ba34318edd",
        "ResourceGroupName" : "IRPC-I1-CrudeSelection-UAT",
        "SqlServerName" : "irpccrudedbuat",
        "FWRuleName": "7Peaks"
    }
]